{
	"artifacts" : 
	[
		{
			"path" : "web"
		}
	],
	"backtrace" : 1,
	"backtraceGraph" : 
	{
		"commands" : 
		[
			"add_executable",
			"target_link_libraries"
		],
		"files" : 
		[
			"CMakeLists.txt"
		],
		"nodes" : 
		[
			{
				"file" : 0
			},
			{
				"command" : 0,
				"file" : 0,
				"line" : 8,
				"parent" : 0
			},
			{
				"command" : 1,
				"file" : 0,
				"line" : 23,
				"parent" : 0
			}
		]
	},
	"compileGroups" : 
	[
		{
			"compileCommandFragments" : 
			[
				{
					"fragment" : "-fdiagnostics-color=always"
				}
			],
			"language" : "C",
			"languageStandard" : 
			{
				"backtraces" : 
				[
					1
				],
				"standard" : "17"
			},
			"sourceIndexes" : 
			[
				0
			]
		}
	],
	"id" : "web::@6890427a1f51a3e7e1df",
	"link" : 
	{
		"commandFragments" : 
		[
			{
				"fragment" : "",
				"role" : "flags"
			},
			{
				"backtrace" : 2,
				"fragment" : "/usr/lib/libraylib.so",
				"role" : "libraries"
			}
		],
		"language" : "C"
	},
	"name" : "web",
	"nameOnDisk" : "web",
	"paths" : 
	{
		"build" : ".",
		"source" : "."
	},
	"sourceGroups" : 
	[
		{
			"name" : "Source Files",
			"sourceIndexes" : 
			[
				0
			]
		}
	],
	"sources" : 
	[
		{
			"backtrace" : 1,
			"compileGroupIndex" : 0,
			"path" : "main.c",
			"sourceGroupIndex" : 0
		}
	],
	"type" : "EXECUTABLE"
}
